2016/06/01 * guld pre-founding contributions
    kovensky:Assets                              100 GULD
    kovensky:Income:guld                        -100 GULD
    guld:Liabilities                         -100 GULD
    guld:Equity:kovensky                          100 GULD
